{
"emisor":{
  "rutemisor":"76040308-3",
  "rsemisor":"EGGA INFORMATICA E.R.L",
  "giroemisor":"SERVICIOS INFORMATICOS",
  "actecoemisor":"466302",
  "diremisor":"URMENETA 305 OFICINA 513",
  "cmnaemisor":"PUERTO MONTT",
  "ciuemisor":"PUERTO MONTT",
  "fecharesol":"2016-04-25",
  "numresol":"0",
  "codsiisucur":"1",    
  "rutenvia":"13968481-8"
},   
"receptor":{
  "rutreceptor":"77503420-3",
  "rsreceptor":"INMOBILIARIA MALL PLAZA LOS RIOS LTDA",
  "giroreceptor":"INMOBILIARIA",
  "dirreceptor":"ARAUCO 561 PISO 7 700",
  "cmnareceptor":"VALDIVIA",
  "ciureceptor":"VALDIVIA",
  "rutrecepcaratula":"60803000-K"	
},
"iddoc" : {
      "tipodte" : "33",
      "numdte": "1",
      "fechaemision":"2023-03-16",
      "frmapago":"3"	   
    },  
"referencia":{
                  "codref":"0",
                  "razonref":"FACTURA ELECTRONICA",
                  "numref":"1", 
                  "TpoDocRef":"33",
                  "folioref":"1",
                  "fecharef":"2023-03-16"
},
"totales":{  
    "montoafecto":"64475",
    "montoexento":"0",
    "montoiva":"12250",
    "tasaiva":"19", 
	"montototal":"3009999" , 
	"imptoreten":[
		{
 				"tipoimp":"26",
				"tasapimp":"20.5",
				"montoimp":"6494"

		},
		{
 				"tipoimp":"271",
				"tasapimp":"18",
				"montoimp":"5903"

		},
		
		
		
		]	
    
},
	
	
	
	
	
  "detalle":[
          {
            "nrolinea" : "1",
            "tpocodigo" : "INT",
            "vlrcodigo" : "1",
            "nmbitem":"CORONA EXTRA 355 CC 4.6",
            "qtyitem":"72",
            "prcitem":"440",
            "descuentopct" :"0",
            "descuentomonto":"0",
            "indexe":"0",
            "montoitem":"31680",
            "codimpadic":"26" 
			  
			  
          },
	  
	   {
            "nrolinea" : "2",
            "tpocodigo" : "INT",
            "vlrcodigo" : "1",
            "nmbitem":"Coca-Cola",
            "qtyitem":"36",
            "prcitem":"911",
            "descuentopct" :"0",
            "descuentomonto":"0",
            "indexe":"0",
            "montoitem":"32796",
            "codimpadic":"271" 
			  
			  
          }
         
        ]
}

